%YAML 1.1
%TAG !u! tag:unity3d.com,2011:
--- !u!1045 &1
EditorBuildSettings:
  m_ObjectHideFlags: 0
  serializedVersion: 2
  m_Scenes:
  - enabled: 0
    path: Assets/Scenes/ex-4.unity
    guid: ada2b655a50fd354181d9c506922da3f
  - enabled: 0
    path: Assets/Scenes/ex-1.unity
    guid: a384bfb7da6353b4888cd09b67d691aa
  - enabled: 0
    path: Assets/Scenes/ex-2.unity
    guid: 32c393b5d1242ea49bcb3eff680e7393
  - enabled: 1
    path: Assets/Scenes/Start.unity
    guid: a70d703eb3ac21f4aa6d65a69824e07b
  - enabled: 1
    path: Assets/Scenes/Cooking.unity
    guid: 0f772d790c1c03c48ae038a914119e9c
  - enabled: 1
    path: Assets/Scenes/Storage.unity
    guid: 6109849b417314b488b77937dec01932
  - enabled: 1
    path: Assets/Scenes/Service.unity
    guid: 01dff05b555308241980ecbc9a3fa6d3
  m_configObjects:
    Unity.XR.Oculus.Settings: {fileID: 11400000, guid: 36cc3d22a8ebf4844a9acba5b00378ab,
      type: 2}
    com.unity.xr.management.loader_settings: {fileID: 11400000, guid: 0bf6e9ab83e892d458241c2f99e5873b,
      type: 2}
